01_script_glmm.R
…
pacman::p_load(tidyverse,
               glmmTMB,
               lme4)

data(Owls)
df_owl_raw<-as_tibble(Owls)

(df_owl <- df_owl_raw %>%               
    janitor::clean_names() %>%       #gets rid of uppercase letters in col names     
    mutate(across(.cols = where(is.factor), # Select all factor-type columns
                  .fns = str_to_lower)) # makes all words within those col lowercase too
)

## # A tibble: 599 × 8
##    nest    food_treatment sex_parent arrival_time sibling_negotiation brood_size
##    <chr>   <chr>          <chr>             <dbl>               <int>      <int>
##  1 autava… deprived       male               22.2                   4          5
##  2 autava… satiated       male               22.4                   0          5
##  3 autava… deprived       male               22.5                   2          5
##  4 autava… deprived       male               22.6                   2          5
##  5 autava… deprived       male               22.6                   2          5
##  6 autava… deprived       male               22.6                   2          5
##  7 autava… deprived       male               22.8                  18          5
##  8 autava… satiated       female             22.9                   4          5
##  9 autava… deprived       male               23.0                  18          5
## 10 autava… satiated       female             23.1                   0          5
## # ℹ 589 more rows
## # ℹ 2 more variables: neg_per_chick <dbl>, log_brood_size <dbl>
…
